<?xml version="1.0" encoding="UTF-8" standalone="no"?>
<svg
   xmlns:dc="http://purl.org/dc/elements/1.1/"
   xmlns:cc="http://creativecommons.org/ns#"
   xmlns:rdf="http://www.w3.org/1999/02/22-rdf-syntax-ns#"
   xmlns:svg="http://www.w3.org/2000/svg"
   xmlns="http://www.w3.org/2000/svg"
   xmlns:sodipodi="http://sodipodi.sourceforge.net/DTD/sodipodi-0.dtd"
   xmlns:inkscape="http://www.inkscape.org/namespaces/inkscape"
   version="1.1"
   id="Clover"
   x="0px"
   y="0px"
   viewBox="0 0 512 512"
   enable-background="new 0 0 512 512"
   xml:space="preserve"
   sodipodi:docname="4chan.svg"
   inkscape:version="0.92.3 (2405546, 2018-03-11)"><metadata
   id="metadata67"><rdf:RDF><cc:Work
       rdf:about=""><dc:format>image/svg+xml</dc:format><dc:type
         rdf:resource="http://purl.org/dc/dcmitype/StillImage" /></cc:Work></rdf:RDF></metadata><defs
   id="defs65" /><sodipodi:namedview
   pagecolor="#ffffff"
   bordercolor="#666666"
   borderopacity="1"
   objecttolerance="10"
   gridtolerance="10"
   guidetolerance="10"
   inkscape:pageopacity="0"
   inkscape:pageshadow="2"
   inkscape:window-width="1920"
   inkscape:window-height="1080"
   id="namedview63"
   showgrid="false"
   inkscape:zoom="0.4609375"
   inkscape:cx="171.38983"
   inkscape:cy="256"
   inkscape:window-x="0"
   inkscape:window-y="0"
   inkscape:window-maximized="0"
   inkscape:current-layer="Clover" />
  <path
   stroke-miterlimit="10"
   d="m 76.018235,81.95188 c 0,-29.208268 94.870275,-69.171522 140.041205,96.56843 0,0 -144.68283,28.18938 -164.607851,-4.18878 -19.925022,-32.37816 52.076761,-50.71824 52.076761,-62.26569 0,-11.54746 -27.510115,-0.90569 -27.510115,-30.11396 z"
   id="path2"
   inkscape:connector-curvature="0"
   style="fill:none;stroke:#006600;stroke-width:42.54173279;stroke-miterlimit:10" />
  <path
   stroke-miterlimit="10"
   d="m 76.018235,81.95188 c 0,-29.208268 94.870275,-69.171522 140.041205,96.56843 0,0 -144.68283,28.18938 -164.607851,-4.18878 -19.925022,-32.37816 52.076761,-50.71824 52.076761,-62.26569 0,-11.54746 -27.510115,-0.90569 -27.510115,-30.11396 z"
   id="path4"
   inkscape:connector-curvature="0"
   style="fill:none;stroke:#a4cf88;stroke-width:15.9531498;stroke-miterlimit:10" />
  <linearGradient
   id="SVGID_1_"
   gradientUnits="userSpaceOnUse"
   x1="143.1424"
   y1="192"
   x2="143.1424"
   y2="77.7196"
   gradientTransform="matrix(1.1321035,0,0,1.1321035,-30.059863,-29.673523)">
    <stop offset="0" stop-color="#298122" id="stop6" />
    <stop offset="0.2857" stop-color="#016701" id="stop8" />
    <stop offset="0.2858" stop-color="#44942E" id="stop10" />
    <stop offset="1" stop-color="#85BF5A" id="stop12" />
  </linearGradient>
  <path
   d="m 76.018235,81.95188 c 0,-29.208268 94.870275,-69.171522 140.041205,96.56843 0,0 -144.68283,28.18938 -164.607851,-4.18878 -19.925022,-32.37816 52.076761,-50.71824 52.076761,-62.26569 0,-11.54746 -27.510115,-0.90569 -27.510115,-30.11396 z"
   id="path15"
   style="fill:url(#SVGID_1_);stroke-width:1.13210344"
   inkscape:connector-curvature="0" />
  <path
   stroke-miterlimit="10"
   d="m 428.8949,67.574168 c 29.20827,0 69.17152,94.870272 -96.56843,140.041202 0,0 -28.18938,-144.682827 4.18878,-164.607848 32.37816,-19.925022 50.71824,52.076758 62.2657,52.076758 11.54745,0 0.79247,-27.510112 30.11395,-27.510112 z"
   id="path17"
   inkscape:connector-curvature="0"
   style="fill:none;stroke:#006600;stroke-width:42.54173279;stroke-miterlimit:10" />
  <path
   stroke-miterlimit="10"
   d="m 428.8949,67.574168 c 29.20827,0 69.17152,94.870272 -96.56843,140.041202 0,0 -28.18938,-144.682827 4.18878,-164.607848 32.37816,-19.925022 50.71824,52.076758 62.2657,52.076758 11.54745,0 0.79247,-27.510112 30.11395,-27.510112 z"
   id="path19"
   inkscape:connector-curvature="0"
   style="fill:none;stroke:#a4cf88;stroke-width:15.9531498;stroke-miterlimit:10" />
  <linearGradient
   id="SVGID_2_"
   gradientUnits="userSpaceOnUse"
   x1="369.3906"
   y1="192"
   x2="369.3906"
   y2="77.7196"
   gradientTransform="matrix(1.1321035,0,0,1.1321035,-30.059863,-29.673523)">
    <stop offset="0" stop-color="#298122" id="stop21" />
    <stop offset="0.2857" stop-color="#016701" id="stop23" />
    <stop offset="0.2858" stop-color="#44942E" id="stop25" />
    <stop offset="1" stop-color="#85BF5A" id="stop27" />
  </linearGradient>
  <path
   d="m 428.8949,67.574168 c 29.20827,0 69.17152,94.870272 -96.56843,140.041202 0,0 -28.18938,-144.682827 4.18878,-164.607848 32.37816,-19.925022 50.71824,52.076758 62.2657,52.076758 11.54745,0 0.79247,-27.510112 30.11395,-27.510112 z"
   id="path30"
   style="fill:url(#SVGID_2_);stroke-width:1.13210344"
   inkscape:connector-curvature="0" />
  <path
   stroke-miterlimit="10"
   d="m 438.63099,439.47017 c -1.81137,29.20827 -98.83264,63.28458 -133.92784,-104.946 0,0 146.15456,-19.35897 164.04179,14.1513 18.00045,33.51026 -55.02023,47.54834 -55.69949,58.98259 -0.67926,11.66067 27.28369,2.71705 25.58554,31.81211 z"
   id="path32"
   inkscape:connector-curvature="0"
   style="fill:none;stroke:#006600;stroke-width:42.54173279;stroke-miterlimit:10" />
  <path
   stroke-miterlimit="10"
   d="m 438.63099,439.47017 c -1.81137,29.20827 -98.83264,63.28458 -133.92784,-104.946 0,0 146.15456,-19.35897 164.04179,14.1513 18.00045,33.51026 -55.02023,47.54834 -55.69949,58.98259 -0.67926,11.66067 27.28369,2.71705 25.58554,31.81211 z"
   id="path34"
   inkscape:connector-curvature="0"
   style="fill:none;stroke:#a4cf88;stroke-width:15.9531498;stroke-miterlimit:10" />
  <linearGradient
   id="SVGID_3_"
   gradientUnits="userSpaceOnUse"
   x1="369.3906"
   y1="413"
   x2="369.3906"
   y2="316.9167"
   gradientTransform="matrix(1.1321035,0,0,1.1321035,-30.059863,-29.673523)">
    <stop offset="0" stop-color="#298122" id="stop36" />
    <stop offset="0.2857" stop-color="#016701" id="stop38" />
    <stop offset="0.2858" stop-color="#44942E" id="stop40" />
    <stop offset="1" stop-color="#85BF5A" id="stop42" />
  </linearGradient>
  <path
   d="m 438.63099,439.47017 c -1.81137,29.20827 -98.83264,63.28458 -133.92784,-104.946 0,0 146.15456,-19.35897 164.04179,14.1513 18.00045,33.51026 -55.02023,47.54834 -55.69949,58.98259 -0.67926,11.66067 27.28369,2.71705 25.58554,31.81211 z"
   id="path45"
   style="fill:url(#SVGID_3_);stroke-width:1.13210344"
   inkscape:connector-curvature="0" />
  <path
   stroke-miterlimit="10"
   d="m 111.00024,461.43298 c -29.095063,3.16989 -78.907621,-86.83234 81.05861,-149.55088 0,0 43.47277,140.83368 13.47203,164.15501 -30.00074,23.32133 -56.03912,-46.30303 -67.47337,-45.05772 -11.43425,1.24532 2.03779,27.39691 -27.05727,30.45359 z"
   id="path47"
   inkscape:connector-curvature="0"
   style="fill:none;stroke:#006600;stroke-width:42.54173279;stroke-miterlimit:10" />
  <path
   stroke-miterlimit="10"
   d="m 111.00024,461.43298 c -29.095063,3.16989 -78.907621,-86.83234 81.05861,-149.55088 0,0 43.47277,140.83368 13.47203,164.15501 -30.00074,23.32133 -56.03912,-46.30303 -67.47337,-45.05772 -11.43425,1.24532 2.03779,27.39691 -27.05727,30.45359 z"
   id="path49"
   inkscape:connector-curvature="0"
   style="fill:none;stroke:#a4cf88;stroke-width:15.9531498;stroke-miterlimit:10" />
  <linearGradient
   id="SVGID_4_"
   gradientUnits="userSpaceOnUse"
   x1="157.3587"
   y1="413"
   x2="157.3587"
   y2="316.9167"
   gradientTransform="matrix(1.1321035,0,0,1.1321035,-30.059863,-29.673523)">
    <stop offset="0" stop-color="#298122" id="stop51" />
    <stop offset="0.2857" stop-color="#016701" id="stop53" />
    <stop offset="0.2858" stop-color="#44942E" id="stop55" />
    <stop offset="1" stop-color="#85BF5A" id="stop57" />
  </linearGradient>
  <path
   d="m 111.00024,461.43298 c -29.095063,3.16989 -78.907621,-86.83234 81.05861,-149.55088 0,0 43.47277,140.83368 13.47203,164.15501 -30.00074,23.32133 -56.03912,-46.30303 -67.47337,-45.05772 -11.43425,1.24532 2.03779,27.39691 -27.05727,30.45359 z"
   id="path60"
   style="fill:url(#SVGID_4_);stroke-width:1.13210344"
   inkscape:connector-curvature="0" />
</svg>
